﻿{
	"Up": [
		{ "InputType": "Keyboard", "Data": "E" }
	],

	"Down": [
		{ "InputType": "Keyboard", "Data": "Q" }
	],

	"Left": [
		{ "InputType": "Keyboard", "Data": "A" },
		{ "InputType": "Keyboard", "Data": "Left" }
	],

	"Right": [
		{ "InputType": "Keyboard", "Data": "D" },
		{ "InputType": "Keyboard", "Data": "Right" }
	],

	"Forward": [
		{ "InputType": "Keyboard", "Data": "W" },
		{ "InputType": "Keyboard", "Data": "Up" }
	],	

	"Back": [
		{ "InputType": "Keyboard", "Data": "S" },
		{ "InputType": "Keyboard", "Data": "Down" }
	]
}
