info face="Bahnschrift Light" size=28 bold=0 italic=0 charset="" unicode=1 stretchH=100 smooth=1 aa=1 padding=0,0,0,0 spacing=1,1 outline=0
common lineHeight=28 base=23 scaleW=64 scaleH=64 pages=1 packed=0 alphaChnl=1 redChnl=0 greenChnl=0 blueChnl=0
page id=0 file="Hole1_0.png"
chars count=15
char id=32   x=31    y=34    width=3     height=1     xoffset=-1    yoffset=27    xadvance=4     page=0  chnl=15
char id=48   x=27    y=0     width=11    height=16    xoffset=1     yoffset=7     xadvance=13    page=0  chnl=15
char id=49   x=57    y=17    width=6     height=16    xoffset=0     yoffset=7     xadvance=8     page=0  chnl=15
char id=50   x=24    y=17    width=10    height=16    xoffset=1     yoffset=7     xadvance=12    page=0  chnl=15
char id=51   x=39    y=0     width=11    height=16    xoffset=0     yoffset=7     xadvance=12    page=0  chnl=15
char id=52   x=14    y=0     width=12    height=16    xoffset=1     yoffset=7     xadvance=13    page=0  chnl=15
char id=53   x=51    y=0     width=11    height=16    xoffset=1     yoffset=7     xadvance=13    page=0  chnl=15
char id=54   x=35    y=17    width=10    height=16    xoffset=1     yoffset=7     xadvance=12    page=0  chnl=15
char id=55   x=0     y=17    width=11    height=16    xoffset=0     yoffset=7     xadvance=12    page=0  chnl=15
char id=56   x=12    y=17    width=11    height=16    xoffset=1     yoffset=7     xadvance=13    page=0  chnl=15
char id=57   x=46    y=17    width=10    height=16    xoffset=1     yoffset=7     xadvance=12    page=0  chnl=15
char id=72   x=0     y=0     width=13    height=16    xoffset=1     yoffset=7     xadvance=16    page=0  chnl=15
char id=101  x=7     y=34    width=11    height=12    xoffset=1     yoffset=11    xadvance=13    page=0  chnl=15
char id=108  x=0     y=34    width=6     height=16    xoffset=1     yoffset=7     xadvance=7     page=0  chnl=15
char id=111  x=19    y=34    width=11    height=12    xoffset=1     yoffset=11    xadvance=13    page=0  chnl=15
