info face="Bahnschrift" size=60 bold=0 italic=0 charset="" unicode=1 stretchH=100 smooth=1 aa=1 padding=0,0,0,0 spacing=1,1 outline=0
common lineHeight=60 base=50 scaleW=128 scaleH=128 pages=1 packed=0 alphaChnl=1 redChnl=0 greenChnl=0 blueChnl=0
page id=0 file="Timer_0.png"
chars count=11
char id=48   x=50    y=0     width=22    height=36    xoffset=3     yoffset=14    xadvance=28    page=0  chnl=15
char id=49   x=88    y=37    width=12    height=36    xoffset=1     yoffset=14    xadvance=17    page=0  chnl=15
char id=50   x=73    y=0     width=22    height=36    xoffset=2     yoffset=14    xadvance=26    page=0  chnl=15
char id=51   x=96    y=0     width=22    height=36    xoffset=2     yoffset=14    xadvance=26    page=0  chnl=15
char id=52   x=0     y=0     width=25    height=36    xoffset=2     yoffset=14    xadvance=28    page=0  chnl=15
char id=53   x=0     y=37    width=21    height=36    xoffset=3     yoffset=14    xadvance=27    page=0  chnl=15
char id=54   x=22    y=37    width=21    height=36    xoffset=2     yoffset=14    xadvance=26    page=0  chnl=15
char id=55   x=44    y=37    width=21    height=36    xoffset=2     yoffset=14    xadvance=25    page=0  chnl=15
char id=56   x=26    y=0     width=23    height=36    xoffset=3     yoffset=14    xadvance=28    page=0  chnl=15
char id=57   x=66    y=37    width=21    height=36    xoffset=2     yoffset=14    xadvance=26    page=0  chnl=15
char id=58   x=119   y=0     width=7     height=25    xoffset=2     yoffset=25    xadvance=11    page=0  chnl=15
